thesisplots
…
New names:
* Chrom -> Chrom...1
* Transcript -> Transcript...8
* Score -> Score...14
* Inheritance -> Inheritance...17
* Link -> Link...20
* ... and 46 more problems

## Number of variants after filtering CH genes:
2302 
## Recurring Variants
# A tibble: 28 x 2
   Var1                                 Freq
   <chr>                               <int>
 1 PIK3CG.c.972 981delinsGCTGGTGGAC       83
 2 AURKB.c.885 893delinsTGTGCCCAC         80
 3 FAT1.c.9351 9363delinsCGTGAACGATAAT    67
 4 PREX2.c.1195 1200delinsAGAAAA          62
 5 BARD1.c.1518 1519delinsCA              59
 6 PREX2.c.1818 1819delinsGC              57
 7 CSF3R.c.1254 1260delinsCCCCACC         56
 8 NOTCH4.c.813 815delinsGGG              52
 9 ROS1.c.6682 6686delinsCAGTG            48
10 ATRX.c.2785G>C                         26
# ... with 18 more rows
…
New names:
* `` -> ...6
New names:
* Chrom -> Chrom...1
* Transcript -> Transcript...8
* Score -> Score...14
* Inheritance -> Inheritance...17
* Link -> Link...20
* ... and 46 more problems
Warning message:
"Column `Gene` joining character vector and factor, coercing into character vector"Warning message:
"Column `cDNA_change` joining character vector and factor, coercing into character vector"

# A tibble: 66 x 2
   Samples     n
   <chr>   <int>
 1 122         5
 2 126        22
 3 127         5
 4 128         1
 5 133         3
 6 135        38
 7 138        14
 8 142         4
 9 175         5
10 200        11
# ... with 56 more rows
…
